;All = 1,Colmaret = 2,Joha = 3,Cheshire = 4,Zatoo = 5,Armdree = 6,Tarassen = 7,Krazan = 8,Yanan = 9
;Single2 = 2,Single3 = 3,Single4 = 4,Team = 5,,,,,
;iDx,GameType,PlayMode,WinExp,LoseExp,WinCoin,LoseCoin,RankPoint,
1,2,2,1,-1,10,2,1,
2,2,3,1,-1,15,2,2,
3,2,4,1,-1,20,2,3,
4,2,5,1,-1,25,2,4,
5,3,2,1,-1,15,3,2,
6,3,3,1,-1,20,3,3,
7,3,4,1,-1,25,3,4,
8,3,5,1,-1,30,3,5,
9,4,2,1,-1,15,3,2,
10,4,3,1,-1,20,3,3,
11,4,4,1,-1,25,3,4,
12,4,5,1,-1,30,3,5,
13,5,2,1,-1,15,3,2,
14,5,3,1,-1,20,3,3,
15,5,4,1,-1,25,3,4,
16,5,5,1,-1,30,3,5,
17,6,2,1,-1,30,8,5,
18,6,3,1,-1,35,8,6,
19,6,4,1,-1,40,8,7,
20,6,5,1,-1,45,8,8,
21,7,2,1,-1,40,10,6,
22,7,3,1,-1,45,10,7,
23,7,4,1,-1,50,10,8,
24,7,5,1,-1,55,10,9,
25,8,2,1,-1,30,8,5,
26,8,3,1,-1,35,8,6,
27,8,4,1,-1,40,8,7,
28,8,5,1,-1,45,8,8,
29,9,2,1,-1,50,12,8,
30,9,3,1,-1,55,12,9,
31,9,4,1,-1,60,12,10,
32,9,5,1,-1,65,12,11,